<?xml version="1.0" encoding="UTF-8" standalone="no"?>
<!DOCTYPE svg PUBLIC "-//W3C//DTD SVG 1.1//EN" "http://www.w3.org/Graphics/SVG/1.1/DTD/svg11.dtd">
<svg width="100%" height="100%" viewBox="0 0 512 512" version="1.1" xmlns="http://www.w3.org/2000/svg" xmlns:xlink="http://www.w3.org/1999/xlink" xml:space="preserve" xmlns:serif="http://www.serif.com/" style="fill-rule:evenodd;clip-rule:evenodd;stroke-linejoin:round;stroke-miterlimit:2;">
    <g>
        <path d="M512,313.608L512,198.392L463.583,188.994C460.008,177.945 455.543,167.183 450.241,156.833L477.897,115.942L396.509,34.389L355.565,61.96C345.097,56.57 334.2,52.038 323.007,48.417L313.608,0L198.392,0L188.993,48.417C177.945,51.992 167.181,56.457 156.832,61.759L115.942,34.103L34.389,115.49L61.96,156.435C56.57,166.903 52.038,177.8 48.417,188.993L0,198.392L0,313.609L48.417,323.007C51.992,334.056 56.457,344.818 61.759,355.169L34.103,396.059L115.491,477.612L156.435,450.041C166.903,455.431 177.799,459.962 188.993,463.583L198.392,512L313.608,512L323.007,463.583C334.056,460.008 344.818,455.543 355.168,450.241L396.059,477.897L477.612,396.509L450.04,355.565C455.429,345.097 459.961,334.201 463.582,323.007L512,313.608ZM439.838,297.056L437.363,306.017C433.225,321.001 427.214,335.452 419.496,348.967L414.876,357.057L438.91,392.748L392.375,439.188L356.73,415.08L348.631,419.683C335.204,427.314 320.866,433.263 306.016,437.363L297.055,439.837L288.872,482L223.128,482L214.943,439.838L205.982,437.363C191,433.226 176.55,427.215 163.033,419.496L154.943,414.876L119.252,438.911L72.812,392.376L96.92,356.732L92.317,348.633C84.686,335.205 78.737,320.867 74.637,306.017L72.162,297.056L30,288.872L30,223.128L72.162,214.944L74.637,205.983C78.773,191 84.785,176.55 92.503,163.032L97.122,154.943L73.088,119.252L119.623,72.811L155.267,96.919L163.366,92.316C176.794,84.685 191.132,78.736 205.981,74.636L214.942,72.162L223.128,30L288.872,30L297.057,72.163L306.018,74.637C321,78.774 335.451,84.785 348.968,92.504L357.058,97.124L392.749,73.09L439.189,119.625L415.081,155.269L419.684,163.368C427.315,176.796 433.263,191.134 437.364,205.984L439.839,214.945L482,223.128L482,288.872L439.838,297.056Z" style="fill:white;fill-rule:nonzero;stroke:black;stroke-width:12.89px;"/>
        <path d="M258.083,96.986C170.402,96.986 99.069,168.319 99.069,256C99.069,343.681 170.402,415.014 258.083,415.014C345.764,415.014 417.097,343.681 417.097,256C417.097,168.319 345.763,96.986 258.083,96.986ZM258.083,385.014C186.944,385.014 129.069,327.139 129.069,256C129.069,184.861 186.944,126.986 258.083,126.986C329.222,126.986 387.097,184.861 387.097,256C387.097,327.139 329.221,385.014 258.083,385.014Z" style="fill:white;fill-rule:nonzero;stroke:black;stroke-width:12.89px;"/>
        <path d="M300.282,241.173C305.435,233.265 308.443,223.838 308.443,213.716C308.443,185.902 285.814,163.273 257.999,163.273C230.185,163.273 207.556,185.902 207.556,213.716C207.556,223.865 210.579,233.317 215.758,241.237C192.668,252.568 176.73,276.317 176.73,303.726L176.73,318.726L339.437,318.726L339.437,303.726C339.436,276.267 323.441,252.479 300.282,241.173ZM257.999,193.272C269.272,193.272 278.443,202.443 278.443,213.715C278.443,224.987 269.272,234.158 257.999,234.158C246.727,234.158 237.556,224.987 237.556,213.715C237.556,202.443 246.727,193.272 257.999,193.272ZM209.682,288.726C215.603,274.325 229.785,264.159 246.295,264.159L269.869,264.159C286.38,264.159 300.561,274.325 306.482,288.726L209.682,288.726Z" style="fill:white;fill-rule:nonzero;stroke:black;stroke-width:12.89px;"/>
    </g>
</svg>
