<?xml version="1.0" encoding="UTF-8" standalone="no"?>
<!DOCTYPE svg PUBLIC "-//W3C//DTD SVG 1.1//EN" "http://www.w3.org/Graphics/SVG/1.1/DTD/svg11.dtd">
<svg width="100%" height="100%" viewBox="0 0 20 20" version="1.1" xmlns="http://www.w3.org/2000/svg" xmlns:xlink="http://www.w3.org/1999/xlink" xml:space="preserve" xmlns:serif="http://www.serif.com/" style="fill-rule:evenodd;clip-rule:evenodd;stroke-linejoin:round;stroke-miterlimit:2;">
    <g transform="matrix(1,0,0,1,10,10)">
        <g id="calendar" transform="matrix(1,0,0,1,-9.7875,-9.7875)">
            <g id="Group_54">
                <g id="Path_46" transform="matrix(1,0,0,1,-383,-86)">
                    <path d="M400.762,87.812L398.225,87.812L398.225,87.087C398.224,86.491 397.733,86.001 397.137,86L396.775,86C396.179,86.001 395.689,86.491 395.688,87.087L395.688,87.812L389.888,87.812L389.888,87.087C389.887,86.491 389.396,86.001 388.8,86L388.438,86C387.842,86.001 387.351,86.491 387.35,87.087L387.35,87.812L384.813,87.812C383.819,87.813 383.001,88.631 383,89.625L383,103.762C383.002,104.755 383.819,105.572 384.812,105.574L400.762,105.574C401.756,105.573 402.573,104.756 402.575,103.762L402.575,89.625C402.574,88.631 401.756,87.813 400.762,87.812ZM384.812,88.537L387.349,88.537L387.349,89.262C387.35,89.858 387.841,90.348 388.437,90.349L389.524,90.349C389.723,90.349 389.887,90.185 389.887,89.986C389.887,89.788 389.723,89.624 389.524,89.624L388.437,89.624C388.238,89.624 388.074,89.46 388.074,89.261L388.074,87.087C388.074,86.888 388.238,86.724 388.437,86.724L388.799,86.724C388.998,86.725 389.161,86.888 389.161,87.087L389.161,87.812C388.962,87.812 388.799,87.976 388.799,88.175C388.799,88.373 388.962,88.537 389.161,88.537L395.686,88.537L395.686,89.262C395.687,89.858 396.177,90.348 396.773,90.349L397.86,90.349C398.059,90.349 398.223,90.185 398.223,89.986C398.223,89.788 398.059,89.624 397.86,89.624L396.773,89.624C396.574,89.623 396.411,89.46 396.411,89.261L396.411,87.087C396.411,86.888 396.574,86.725 396.773,86.724L397.135,86.724C397.334,86.724 397.498,86.888 397.498,87.087L397.498,87.812C397.299,87.812 397.135,87.976 397.135,88.175C397.135,88.373 397.299,88.537 397.498,88.537L400.76,88.537C401.356,88.538 401.846,89.028 401.847,89.624L401.847,92.524L383.725,92.524L383.725,89.624C383.726,89.028 384.216,88.538 384.812,88.537ZM400.762,104.849L384.812,104.849C384.216,104.848 383.726,104.358 383.725,103.762L383.725,93.25L401.85,93.25L401.85,103.762C401.849,104.359 401.359,104.849 400.762,104.85L400.762,104.849Z" style="fill:white;fill-rule:nonzero;"/>
                </g>
                <g id="Path_47" transform="matrix(1,0,0,1,-392.563,-103.34)">
                    <path d="M398.145,114.287C398.054,114.355 398,114.463 398,114.577C398,114.776 398.164,114.939 398.363,114.939C398.441,114.939 398.517,114.914 398.58,114.867L399.45,114.215L399.45,119.29C399.46,119.482 399.621,119.634 399.813,119.634C400.004,119.634 400.165,119.482 400.175,119.29L400.175,113.49L399.595,113.2L398.145,114.287Z" style="fill:white;fill-rule:nonzero;"/>
                </g>
                <g id="Path_48" transform="matrix(1,0,0,1,-400.723,-103.85)">
                    <path d="M412.622,116.2L411.961,116.184L411.961,114.725L414.136,114.725C414.335,114.725 414.498,114.561 414.498,114.363C414.498,114.164 414.335,114 414.136,114L411.236,114L411.236,116.891L412.613,116.924C413.289,116.924 413.845,117.48 413.845,118.156C413.845,118.832 413.289,119.388 412.613,119.388C412.132,119.388 411.694,119.107 411.493,118.67C411.434,118.541 411.305,118.458 411.163,118.458C410.965,118.458 410.801,118.621 410.801,118.82C410.801,118.872 410.813,118.923 410.834,118.97C411.152,119.664 411.849,120.111 412.613,120.111C413.686,120.111 414.57,119.228 414.57,118.154C414.57,117.084 413.692,116.202 412.622,116.197L412.622,116.2Z" style="fill:white;fill-rule:nonzero;"/>
                </g>
            </g>
        </g>
    </g>
</svg>
