<svg xmlns="http://www.w3.org/2000/svg" width="14.999" height="14.999" viewBox="0 0 14.999 14.999">
  <path id="Union_2" data-name="Union 2" d="M-3410.062-16.563v-4.375h-4.375A1.562,1.562,0,0,1-3416-22.5a1.562,1.562,0,0,1,1.562-1.562h4.375v-4.375A1.562,1.562,0,0,1-3408.5-30a1.562,1.562,0,0,1,1.563,1.562v4.375h4.375A1.562,1.562,0,0,1-3401-22.5a1.562,1.562,0,0,1-1.562,1.562h-4.375v4.375A1.562,1.562,0,0,1-3408.5-15,1.562,1.562,0,0,1-3410.062-16.563Z" transform="translate(3416 30)" fill="#4092e5"/>
</svg>
