<?xml version="1.0" encoding="UTF-8" standalone="no"?>
<!DOCTYPE svg PUBLIC "-//W3C//DTD SVG 1.1//EN" "http://www.w3.org/Graphics/SVG/1.1/DTD/svg11.dtd">
<svg width="100%" height="100%" viewBox="0 0 20 20" version="1.1" xmlns="http://www.w3.org/2000/svg" xmlns:xlink="http://www.w3.org/1999/xlink" xml:space="preserve" xmlns:serif="http://www.serif.com/" style="fill-rule:evenodd;clip-rule:evenodd;">
    <g transform="matrix(1,0,0,1,3,3)">
        <g id="Group_197">
            <g id="configuration">
                <g id="Path_310" transform="matrix(1,0,0,1,-58.242,-58.242)">
                    <path d="M60.879,60.439C60.879,60.68 60.681,60.878 60.44,60.878C60.199,60.878 60.001,60.68 60.001,60.439C60.001,60.199 60.199,60.001 60.439,60C60.439,60 60.44,60 60.44,60C60.681,60 60.879,60.198 60.879,60.439C60.879,60.439 60.879,60.439 60.879,60.439Z" style="fill-rule:nonzero;stroke:white;stroke-width:0.2px;"/>
                </g>
                <g id="Path_311" transform="matrix(1,0,0,1,-116.485,-58.242)">
                    <path d="M120.879,60.439C120.879,60.68 120.681,60.878 120.44,60.878C120.199,60.878 120.001,60.68 120.001,60.439C120.001,60.198 120.199,60 120.44,60C120.681,60 120.879,60.198 120.879,60.439Z" style="fill-rule:nonzero;stroke:white;stroke-width:0.2px;"/>
                </g>
                <g id="Path_312" transform="matrix(1,0,0,1,-174.727,-58.242)">
                    <path d="M180.879,60.439C180.879,60.68 180.681,60.878 180.44,60.878C180.199,60.878 180.001,60.68 180.001,60.439C180.001,60.198 180.199,60 180.44,60C180.681,60 180.879,60.198 180.879,60.439Z" style="fill-rule:nonzero;stroke:white;stroke-width:0.2px;"/>
                </g>
                <path id="Path_313" d="M14.937,13.713L14,12.159C13.921,12.027 13.777,11.945 13.623,11.945C13.506,11.945 13.394,11.992 13.312,12.074L13.001,12.385L11.137,10.521L11.997,9.661C12.099,9.675 12.201,9.683 12.304,9.683C13.507,9.683 14.498,8.692 14.498,7.489C14.498,6.285 13.507,5.295 12.304,5.295C12,5.295 11.699,5.358 11.421,5.48L11.421,0.439C11.421,0.2 11.225,0.002 10.986,0L0.439,0C0.198,0 0,0.198 0,0.439L0,10.986C0,11.227 0.198,11.425 0.439,11.425L5.4,11.425C5.22,11.751 5.125,12.118 5.125,12.49C5.125,13.697 6.118,14.69 7.325,14.69C8.532,14.69 9.525,13.697 9.525,12.49C9.525,12.38 9.517,12.269 9.5,12.16L10.517,11.143L12.381,13.007L12.07,13.318C11.988,13.4 11.941,13.512 11.941,13.629C11.941,13.783 12.023,13.927 12.155,14.006L13.709,14.938C13.881,15.042 14.104,15.014 14.246,14.872L14.867,14.251C15.009,14.109 15.036,13.886 14.933,13.714L14.937,13.713ZM10.137,7.8L9.846,8.091C9.781,7.956 9.694,7.833 9.588,7.727L7.724,5.86C7.642,5.777 7.53,5.731 7.413,5.731C7.296,5.731 7.184,5.777 7.102,5.86L5.931,7.031L0.879,7.031L0.879,4.394L10.547,4.394L10.547,6.177C10.203,6.643 10.055,7.226 10.137,7.8ZM8.345,8.967L6.792,7.413L7.414,6.791L8.967,8.345C9.049,8.427 9.095,8.539 9.095,8.656C9.095,8.897 8.897,9.095 8.656,9.095C8.539,9.095 8.427,9.049 8.345,8.966L8.345,8.967ZM0.879,0.879L10.547,0.879L10.547,3.515L0.879,3.515L0.879,0.879ZM0.879,7.91L6.045,7.91L7.724,9.588C7.83,9.694 7.953,9.781 8.088,9.845L7.638,10.295C7.164,10.229 6.682,10.317 6.263,10.548L0.879,10.548L0.879,7.91ZM8.716,11.7C8.605,11.81 8.562,11.972 8.602,12.123C8.632,12.234 8.647,12.349 8.647,12.465C8.647,13.186 8.054,13.779 7.333,13.779C7.137,13.779 6.943,13.735 6.766,13.65L7.645,12.771C7.727,12.689 7.773,12.577 7.773,12.461C7.773,12.219 7.575,12.021 7.334,12.021C7.217,12.021 7.105,12.067 7.023,12.15L6.144,13.029C6.061,12.853 6.017,12.661 6.017,12.467C6.017,11.747 6.61,11.155 7.329,11.155C7.445,11.155 7.56,11.17 7.671,11.2C7.822,11.24 7.984,11.197 8.094,11.086L10.925,8.255C11.036,8.145 11.079,7.983 11.039,7.832C10.913,7.38 11.042,6.894 11.374,6.563C11.769,6.17 12.371,6.067 12.874,6.306L12,7.181C11.918,7.263 11.871,7.375 11.871,7.491C11.871,7.732 12.07,7.931 12.311,7.931C12.427,7.931 12.539,7.884 12.621,7.802L13.5,6.923C13.74,7.426 13.636,8.029 13.243,8.423C12.912,8.755 12.426,8.884 11.974,8.758C11.823,8.718 11.662,8.762 11.551,8.872L8.716,11.7ZM13.871,14L13.094,13.534L13.541,13.087L14.007,13.864L13.871,14Z" style="fill:white;fill-rule:nonzero;stroke:black;stroke-width:0.2px;"/>
                <g id="Path_314" transform="matrix(1,0,0,1,-58.242,-174.727)">
                    <path d="M60.879,180.439C60.879,180.68 60.681,180.878 60.44,180.878C60.199,180.878 60.001,180.68 60.001,180.439C60.001,180.198 60.199,180 60.44,180C60.681,180 60.879,180.198 60.879,180.439Z" style="fill-rule:nonzero;stroke:white;stroke-width:0.2px;"/>
                </g>
                <g id="Path_315" transform="matrix(1,0,0,1,-116.485,-174.727)">
                    <path d="M120.879,180.439C120.879,180.68 120.681,180.878 120.44,180.878C120.199,180.878 120.001,180.68 120.001,180.439C120.001,180.198 120.199,180 120.44,180C120.681,180 120.879,180.198 120.879,180.439Z" style="fill-rule:nonzero;stroke:white;stroke-width:0.2px;"/>
                </g>
                <g id="Path_316" transform="matrix(1,0,0,1,-174.727,-174.727)">
                    <path d="M180.879,180.439C180.879,180.68 180.681,180.878 180.44,180.878C180.199,180.878 180.001,180.68 180.001,180.439C180.001,180.198 180.199,180 180.44,180C180.681,180 180.879,180.198 180.879,180.439Z" style="fill-rule:nonzero;stroke:white;stroke-width:0.2px;"/>
                </g>
                <g id="Path_317" transform="matrix(1,0,0,1,-58.242,-291.211)">
                    <path d="M60.879,300.439C60.879,300.68 60.681,300.878 60.44,300.878C60.199,300.878 60.001,300.68 60.001,300.439C60.001,300.198 60.199,300 60.44,300C60.681,300 60.879,300.198 60.879,300.439Z" style="fill-rule:nonzero;stroke:white;stroke-width:0.2px;"/>
                </g>
                <g id="Path_318" transform="matrix(1,0,0,1,-116.485,-291.211)">
                    <path d="M120.879,300.439C120.879,300.68 120.681,300.878 120.44,300.878C120.199,300.878 120.001,300.68 120.001,300.439C120.001,300.198 120.199,300 120.44,300C120.681,300 120.879,300.198 120.879,300.439Z" style="fill-rule:nonzero;stroke:white;stroke-width:0.2px;"/>
                </g>
                <g id="Path_319" transform="matrix(1,0,0,1,-174.727,-291.211)">
                    <path d="M180.879,300.439C180.879,300.68 180.681,300.878 180.44,300.878C180.199,300.878 180.001,300.68 180.001,300.439C180.001,300.198 180.199,300 180.44,300C180.681,300 180.879,300.198 180.879,300.439Z" style="fill-rule:nonzero;stroke:white;stroke-width:0.2px;"/>
                </g>
            </g>
        </g>
    </g>
</svg>
