<svg xmlns="http://www.w3.org/2000/svg" width="17.5" height="23.25" viewBox="0 0 17.5 23.25">
  <g id="Group_121" data-name="Group 121" transform="translate(-460.967 -561.326)">
    <g id="Group_115" data-name="Group 115">
      <path id="Path_84" data-name="Path 84" d="M477.967,584.576h-16.5a.5.5,0,0,1-.5-.5v-21.25a.5.5,0,0,1,.5-.5H465.1a.5.5,0,0,1,0,1h-3.131v20.25h15.5v-20.25h-3.24a.5.5,0,1,1,0-1h3.74a.5.5,0,0,1,.5.5v21.25a.5.5,0,0,1-.5.5Z" fill="#3072e5"/>
    </g>
    <g id="Group_116" data-name="Group 116">
      <path id="Path_85" data-name="Path 85" d="M473.092,564.576h-6.75a1.625,1.625,0,0,1,0-3.25h6.75a1.625,1.625,0,0,1,0,3.25Zm-6.75-2.25a.625.625,0,0,0,0,1.25h6.75a.625.625,0,0,0,0-1.25Z" fill="#3072e5"/>
    </g>
    <g id="Group_120" data-name="Group 120">
      <path id="Path_86" data-name="Path 86" d="M466.314,568.473H465.16a.463.463,0,0,0-.463.463v1.154a.462.462,0,0,0,.463.461h1.154a.461.461,0,0,0,.461-.461v-1.154a.461.461,0,0,0-.461-.463Z" fill="#3072e5"/>
      <g id="Group_117" data-name="Group 117">
        <path id="Path_87" data-name="Path 87" d="M474.736,570.012h-6.422a.5.5,0,0,1,0-1h6.422a.5.5,0,0,1,0,1Z" fill="#3072e5"/>
      </g>
      <path id="Path_88" data-name="Path 88" d="M466.314,575.334H465.16a.461.461,0,0,0-.463.461v1.154a.463.463,0,0,0,.463.463h1.154a.461.461,0,0,0,.461-.463v-1.154a.459.459,0,0,0-.461-.461Z" fill="#3072e5"/>
      <g id="Group_118" data-name="Group 118">
        <path id="Path_89" data-name="Path 89" d="M474.736,576.873h-6.422a.5.5,0,0,1,0-1h6.422a.5.5,0,0,1,0,1Z" fill="#3072e5"/>
      </g>
      <path id="Path_90" data-name="Path 90" d="M466.314,571.9H465.16a.463.463,0,0,0-.463.463v1.155a.464.464,0,0,0,.463.462h1.154a.462.462,0,0,0,.461-.462v-1.155a.461.461,0,0,0-.461-.463Z" fill="#3072e5"/>
      <g id="Group_119" data-name="Group 119">
        <path id="Path_91" data-name="Path 91" d="M474.736,573.443h-6.422a.5.5,0,0,1,0-1h6.422a.5.5,0,0,1,0,1Z" fill="#3072e5"/>
      </g>
    </g>
  </g>
</svg>
